<svg width="32" height="32" xmlns="http://www.w3.org/2000/svg">

 <g>
  <title>background</title>
  <rect fill="none" id="canvas_background" height="402" width="582" y="-1" x="-1"/>
 </g>
 <g>
  <title fill="#000000">Layer 1</title>
  <path id="svg_1" fill="#000000" d="m7.701,14.276l9.586,-9.585c0.879,-0.878 2.317,-0.878 3.195,0l0.801,0.8c0.878,0.877 0.878,2.316 0,3.194l-7.315,7.315l7.315,7.315c0.878,0.878 0.878,2.317 0,3.194l-0.801,0.8c-0.878,0.879 -2.316,0.879 -3.195,0l-9.586,-9.587c-0.472,-0.47 -0.681,-1.102 -0.647,-1.722c-0.034,-0.62 0.175,-1.252 0.647,-1.724z"/>
 </g>
</svg>